Id,GPS,Speed(mph),Person,Ad Id,Ad Position,Start Time,End Time,Confidence %,Unit Id
0,"33.88669, -117.99491",0.044,Face Detected,1,Null,2020-07-28 17:04:43,2020-07-28 17:04:46,Null,1
1,"33.88669, -117.99491",0.044,Face Detected,1,Null,2020-07-28 17:04:44,2020-07-28 17:04:45,Null,1
1
3,"33.88669, -117.99491",0.044,Face Detected,1,Null,2020-07-28 17:04:53,2020-07-28 17:04:53,Null,1
4,"33.88669, -117.99491",0.044,Face Detected,1,Null,2020-07-28 17:04:55,2020-07-28 17:04:56,Null,1
5,"33.88669, -117.99491",0.044,Face Detected,1,Null,2020-07-28 17:05:03,2020-07-28 17:05:04,Null,1
6,"33.88669, -117.99491",0.044,Face Detected,1,Null,2020-07-28 17:05:12,2020-07-28 17:05:18,Null,1
7,"33.88669, -117.99491",0.044,Face Detected,1,Null,2020-07-28 17:05:13,2020-07-28 17:05:14,Null,1
8,"33.88669, -117.99491",0.044,Face Detected,1,Null,2020-07-28 17:05:18,2020-07-28 17:05:22,Null,1
9,"33.88669, -117.99491",0.044,Face Detected,1,Null,2020-07-28 17:05:26,2020-07-28 17:05:26,Null,1
10,"33.88669, -117.99491",0.044,Face Detected,1,Null,2020-07-28 17:05:47,2020-07-28 17:05:50,Null,1
11,"33.88669, -117.99491",0.044,Face Detected,1,Null,2020-07-28 17:05:51,2020-07-28 17:05:52,Null,1
12,"33.88669, -117.99491",0.044,Face Detected,1,Null,2020-07-28 17:05:52,2020-07-28 17:05:52,Null,1
1
14,"33.88669, -117.99491",0.044,Face Detected,1,Null,2020-07-28 17:06:07,2020-07-28 17:06:07,Null,1
1
16,"33.88669, -117.99491",0.044,Face Detected,1,Null,2020-07-28 17:06:10,2020-07-28 17:06:12,Null,1
1
18,"33.88669, -117.99491",0.044,Face Detected,1,Null,2020-07-28 17:06:10,2020-07-28 17:06:10,Null,1
19,"33.88669, -117.99491",0.044,Face Detected,1,Null,2020-07-28 17:06:13,2020-07-28 17:06:13,Null,1
1
21,"33.88669, -117.99491",0.044,Face Detected,1,Null,2020-07-28 17:06:20,2020-07-28 17:06:21,Null,1
