Timestamp,GPS,Speed(mph),Impression Present,Human in View
2020-07-28 16:14:24,"33.88598, -117.99582",0.491,0,2
2020-07-28 16:14:25,"33.88598, -117.99582",0.491,0,1
2020-07-28 16:14:26,"33.886, -117.99585",0.435,0,1
2020-07-28 16:14:27,"33.886, -117.99585",0.205,0,1
2020-07-28 16:14:28,"33.886, -117.99585",0.205,0,1
2020-07-28 16:14:29,"33.886, -117.99585",0.205,0,1
2020-07-28 16:14:31,"33.886, -117.99585",0.205,0,1
2020-07-28 16:14:32,"33.886, -117.99585",0.205,0,2
2020-07-28 16:14:33,"33.886, -117.99585",0.205,0,2
2020-07-28 16:14:34,"33.886, -117.99585",0.205,0,1
2020-07-28 16:14:35,"33.886, -117.99585",0.205,0,1
2020-07-28 16:14:36,"33.886, -117.99585",0.205,0,1
2020-07-28 16:14:37,"33.886, -117.99585",0.205,0,2
2020-07-28 16:14:38,"33.886, -117.99585",0.205,0,2
2020-07-28 16:14:39,"33.886, -117.99585",0.205,0,4
2020-07-28 16:14:40,"33.886, -117.99585",0.205,0,2
2020-07-28 16:14:41,"33.886, -117.99585",0.205,0,4
2020-07-28 16:14:42,"33.886, -117.99585",0.205,0,2
2020-07-28 16:14:43,"33.886, -117.99585",0.205,0,1
2020-07-28 16:14:44,"33.88598, -117.99584",0.292,0,3
2020-07-28 16:14:45,"33.88598, -117.99584",0.292,0,3
2020-07-28 16:14:46,"33.88598, -117.99584",0.292,0,3
2020-07-28 16:14:47,"33.88598, -117.99584",0.292,0,2
2020-07-28 16:14:48,"33.88598, -117.99584",0.292,0,2
2020-07-28 16:14:49,"33.88598, -117.99584",0.292,0,1
2020-07-28 16:14:51,"33.88598, -117.99584",0.292,0,1
2020-07-28 16:14:53,"33.88598, -117.99584",0.292,0,1
2020-07-28 16:14:54,"33.88598, -117.99584",0.292,0,1
